Word and Document Analysis | R Statistics Blog
…
word_frequency <- austen_books() %>%
  unnest_tokens(word, text) %>%
  anti_join(stop_words)%>%
  count(book, word, sort = TRUE)

total_words_per_book <- word_frequency %>%
  group_by(book) %>%
  summarise(total_words = sum(n))

word_frequency <- left_join(word_frequency, total_words_per_book)
word_frequency

# A tibble: 37,225 x 4
   book                word          n total_words
   <fct>               <chr>     <int>       <int>
 1 Mansfield Park      fanny       816       47968
 2 Emma                emma        786       46775
 3 Sense & Sensibility elinor      623       36330
 4 Emma                miss        599       46775
 5 Pride & Prejudice   elizabeth   597       37246
 6 Mansfield Park      crawford    493       47968
 7 Sense & Sensibility marianne    492       36330
 8 Persuasion          anne        447       25488
 9 Mansfield Park      miss        432       47968
10 Northanger Abbey    catherine   428       23803
# ... with 37,215 more rows

Now, let’s calculate term frequency by dividing n/total_words for each novel.

freq_by_rank <- word_frequency %>%
  group_by(book) %>%
  mutate(rank = row_number(),
         `term_frequency` = n/total_words)

# A tibble: 37,225 x 6
# Groups:   book [6]
   book      word       n total_words  rank term_frequency
   <fct>     <chr>  <int>       <int> <int>          <dbl>
 1 Mansfiel~ fanny    816       47968     1        0.0170
 2 Emma      emma     786       46775     1        0.0168
 3 Sense & ~ elinor   623       36330     1        0.0171
 4 Emma      miss     599       46775     2        0.0128
 5 Pride & ~ eliza~   597       37246     1        0.0160
 6 Mansfiel~ crawf~   493       47968     2        0.0103
 7 Sense & ~ maria~   492       36330     2        0.0135
 8 Persuasi~ anne     447       25488     1        0.0175
 9 Mansfiel~ miss     432       47968     3        0.00901
10 Northang~ cathe~   428       23803     1        0.0180
# ... with 37,215 more rows
…
